<svg id="gears" viewBox="0,0,130,130">
  <g transform="translate(75,65)">
    <g transform="translate(-30,20)">
        <path d="M36.5 0l6.866-3.413-.402-3.392-7.472-1.716-.778-2.758 5.475-5.368-1.43-3.102-7.638.678-1.592-2.383 3.549-6.797-2.319-2.508-7.054 3.004-2.25-1.774 1.274-7.56-2.98-1.67-5.781 5.037-2.689-.992-1.124-7.584-3.35-.666-3.941 6.577L0-36.5l-3.413-6.866-3.392.402-1.716 7.472-2.758.778-5.368-5.475-3.102 1.43.678 7.638-2.383 1.592-6.797-3.549-2.508 2.319 3.004 7.054-1.774 2.25-7.56-1.274-1.67 2.98 5.037 5.781-.992 2.689-7.584 1.124-.666 3.35 6.577 3.941L-36.5 0l-6.866 3.413.402 3.392 7.472 1.716.778 2.758-5.475 5.368 1.43 3.102 7.638-.678 1.592 2.383-3.549 6.797 2.319 2.508 7.054-3.004 2.25 1.774-1.274 7.56 2.98 1.67 5.781-5.037 2.689.992 1.124 7.584 3.35.666 3.941-6.577L0 36.5l3.413 6.866 3.392-.402 1.716-7.472 2.758-.778 5.368 5.475 3.102-1.43-.678-7.638 2.383-1.592 6.797 3.549 2.508-2.319-3.004-7.054 1.774-2.25 7.56 1.274 1.67-2.98-5.037-5.781.992-2.689 7.584-1.124.666-3.35-6.577-3.941M10 0l-.49 3.09-1.42 2.788L5.878 8.09 3.09 9.51 0 10l-3.09-.49-2.788-1.42-2.212-2.212-1.42-2.788L-10 0l.49-3.09 1.42-2.788 2.212-2.212 2.788-1.42L0-10l3.09.49 2.788 1.42L8.09-5.878 9.51-3.09" fill="#cc1a00" class="cog red"/>
    </g>
    <g transform="translate(31,20) rotate(9)">
        <path d="M16.5 0l6.71-3.676-.86-3.586-7.648-.229-1.353-2.207 3.268-6.919-2.804-2.395-6.322 4.31-2.392-.99-1.423-7.519L0-23.5l-2.581 7.203-2.518.605-5.57-5.247-3.144 1.927 2.146 7.345-1.682 1.969-7.59-.97-1.41 3.406 6.052 4.68L-16.5 0l-6.71 3.676.86 3.586 7.648.229 1.353 2.207-3.268 6.919 2.804 2.395 6.322-4.31 2.392.99 1.423 7.519L0 23.5l2.581-7.203 2.518-.605 5.57 5.247 3.144-1.927-2.146-7.345 1.682-1.969 7.59.97 1.41-3.406-6.052-4.68M5 0l-.955 2.939-2.5 1.816h-3.09l-2.5-1.816L-5 0l.955-2.939 2.5-1.816h3.09l2.5 1.816" fill="#0c3" class="cog green"/>
    </g>
    <g transform="translate(-31,-42) rotate(25)">
        <path d="M16.5 0l6.71-3.676-.86-3.586-7.648-.229-1.353-2.207 3.268-6.919-2.804-2.395-6.322 4.31-2.392-.99-1.423-7.519L0-23.5l-2.581 7.203-2.518.605-5.57-5.247-3.144 1.927 2.146 7.345-1.682 1.969-7.59-.97-1.41 3.406 6.052 4.68L-16.5 0l-6.71 3.676.86 3.586 7.648.229 1.353 2.207-3.268 6.919 2.804 2.395 6.322-4.31 2.392.99 1.423 7.519L0 23.5l2.581-7.203 2.518-.605 5.57 5.247 3.144-1.927-2.146-7.345 1.682-1.969 7.59.97 1.41-3.406-6.052-4.68M13 0l-2.483 7.641-6.5 4.723h-8.034l-6.5-4.723L-13 0l2.483-7.641 6.5-4.723h8.034l6.5 4.723" fill="#33f" class="cog blue"/>
    </g>
  </g>
</svg>
